I2S_VIP_IN_SV/WAVE_OUT.vcd
$date
	Sat Jan 28 01:56:57 2023
$end

$version
	Synopsys VCS version S-2021.09
$end

$timescale
	1ps
$end

$comment Csum: 1 57325616a0aa7e0e $end


$scope module $unit $end
$upscope $end


$scope module top $end
$var reg 1 ! clk $end
$var reg 1 " reset $end

$scope begin unnamed$$_vcs_2 $end
$upscope $end


$scope begin unnamed$$_vcs_0 $end
$upscope $end


$scope begin unnamed$$_vcs_1 $end
$upscope $end


$scope module pif $end
$var reg 1 # reset $end
$var reg 1 $ sd_out $end
$var reg 1 % WS $end
$var reg 1 & SCK $end
$var reg 1 ' clk $end
$upscope $end

$upscope $end

$enddefinitions $end

#0
$dumpvars
1!
1"
1'
1#
0&
x%
x$
$end
#2604
1&
0%
#5208
0&
#7812
1&
1$
#10416
0&
#10417
0!
0'
#13020
1&
0$
#15624
0&
#18228
1&
#20832
0&
#20834
1!
1'
#23436
1&
1$
#26040
0&
#28644
1&
#31248
0&
#31251
0!
0'
#33852
1&
#36456
0&
#39060
1&
#41664
0&
#41668
1!
1'
#44268
1&
#46872
0&
#49476
1&
#52080
0&
#52085
0!
0'
#54684
1&
#57288
0&
#59892
1&
#62496
0&
#62502
1!
1'
#65100
1&
#67704
0&
#70308
1&
0$
#72912
0&
#72919
0!
0'
#75516
1&
1$
#78120
0&
#80724
1&
0$
#83328
0&
#83336
1!
1'
#85932
1&
1$
#85937
1%
#88536
0&
#91140
1&
#93744
0&
#93753
0!
0'
#96348
1&
0$
#98952
0&
#101556
1&
#104160
0&
#104170
1!
1'
#106764
1&
1$
#109368
0&
#111972
1&
#114576
0&
#114587
0!
0'
#117180
1&
#119784
0&
#122388
1&
#124992
0&
#125004
1!
1'
#127596
1&
#130200
0&
#132804
1&
#135408
0&
#135421
0!
0'
#138012
1&
#140616
0&
#143220
1&
#145824
0&
#145838
1!
1'
#148428
1&
#151032
0&
#153636
1&
0$
#156240
0&
#156255
0!
0'
#158844
1&
1$
#161448
0&
#164052
1&
0$
#166656
0&
#166672
1!
1'
#169260
1&
1$
#169270
0%
#171864
0&
#174468
1&
#177072
0&
#177089
0!
0'
#179676
1&
#182280
0&
#184884
1&
0$
#187488
0&
#187506
1!
1'
#190092
1&
#192696
0&
#195300
1&
#197904
0&
#197923
0!
0'
#200508
1&
1$
#203112
0&
#205716
1&
0$
#208320
0&
#208340
1!
1'
#210924
1&
#213528
0&
#216132
1&
1$
#218736
0&
#218757
0!
0'
#221340
1&
0$
#223944
0&
#226548
1&
#229152
0&
#229174
1!
1'
#231756
1&
#234360
0&
#236964
1&
1$
#239568
0&
#239591
0!
0'
#242172
1&
#244776
0&
#247380
1&
0$
#249984
0&
#250008
1!
1'
#252588
1&
#252603
1%
#255192
0&
#257796
1&
1$
#260400
0&
#260425
0!
0'
#263004
1&
#265608
0&
#268212
1&
0$
#270816
0&
#270842
1!
1'
#273420
1&
#276024
0&
#278628
1&
#281232
0&
#281259
0!
0'
#283836
1&
1$
#286440
0&
#289044
1&
0$
#291648
0&
#291676
1!
1'
#294252
1&
#296856
0&
#299460
1&
1$
#302064
0&
#302093
0!
0'
#304668
1&
0$
#307272
0&
#309876
1&
#312480
0&
#312510
1!
1'
#315084
1&
#317688
0&
#320292
1&
1$
#322896
0&
#322927
0!
0'
#325500
1&
#328104
0&
#330708
1&
0$
#333312
0&
#333344
1!
1'
#335916
1&
