AXI_MS_TB_sv/axi_master.vcd
$date
	Sat Jan 28 01:49:22 2023
$end

$version
	Synopsys VCS version S-2021.09
$end

$timescale
	1ns
$end

$comment Csum: 1 2aede9a94a2f9dae $end


$scope module $unit $end
$upscope $end


$scope module top $end
$var reg 1 ! ACLK $end
$var reg 1 " ARESETn $end
$var reg 1 # mclk $end

$scope begin unnamed$$_vcs_6 $end
$upscope $end


$scope begin unnamed$$_vcs_3 $end

$scope fork unnamed$$_vcs_0 $end

$scope begin unnamed$$_vcs_1 $end
$upscope $end


$scope begin unnamed$$_vcs_2 $end
$upscope $end

$upscope $end

$upscope $end


$scope begin unnamed$$_vcs_4 $end
$upscope $end


$scope begin unnamed$$_vcs_5 $end
$upscope $end


$scope module pif $end
$var reg 1 $ ACLK $end
$var reg 1 % ARESETn $end
$var reg 32 & WDATA [31:0] $end
$var reg 4 ' WSTRB [3:0] $end
$var reg 1 ( WLAST $end
$var reg 1 ) WVALID $end
$var reg 8 * ARLEN [7:0] $end
$var reg 1 + ARVALID $end
$var reg 32 , RDATA [31:0] $end
$var reg 1 - RVALID $end
$var reg 1 . mclk $end
$var reg 4 / AWID [3:0] $end
$var reg 32 0 AWADDR [31:0] $end
$var reg 8 1 AWLEN [7:0] $end
$var reg 3 2 AWSIZE [2:0] $end
$var reg 2 3 AWBURST [1:0] $end
$var reg 1 4 AWVALID $end
$var reg 4 5 WID [3:0] $end
$var reg 1 6 BREADY $end
$var reg 4 7 ARID [3:0] $end
$var reg 32 8 ARADDR [31:0] $end
$var reg 3 9 ARSIZE [2:0] $end
$var reg 2 : ARBURST [1:0] $end
$var reg 1 ; RREADY $end
$var reg 1 < AWREADY $end
$var reg 1 = WREADY $end
$var reg 4 > BID [3:0] $end
$var reg 2 ? BRESP [1:0] $end
$var reg 1 @ BVALID $end
$var reg 1 A ARREADY $end
$var reg 4 B RID [3:0] $end
$var reg 2 C RRESP [1:0] $end
$var reg 1 D RLAST $end
$upscope $end

$upscope $end

$enddefinitions $end

#0
$dumpvars
1!
0"
1#
bxx C
bxxxxxxxxxxxxxxxxxxxxxxxxxxxxxxxx ,
bxxxx B
bxx ?
bxxxx >
bxx :
bxxx 9
bxxxxxxxx *
bxxxxxxxxxxxxxxxxxxxxxxxxxxxxxxxx 8
bxxxx 7
bxxxx '
bxxxxxxxxxxxxxxxxxxxxxxxxxxxxxxxx &
bxxxx 5
bxx 3
bxxx 2
bxxxxxxxx 1
bxxxxxxxxxxxxxxxxxxxxxxxxxxxxxxxx 0
bxxxx /
1$
0%
1.
xA
x+
x<
x4
x6
x@
xD
x;
x-
x(
x=
x)
$end
#1
b00001111 1
b01 3
b010 2
14
b0000 5
b00000000000000000000000000000000 &
b0000 '
0(
b1110 /
b00000000000000000000000000011011 0
0)
16
b0000 7
b00000000000000000000000000000000 8
b000 9
b00 :
0+
1;
#5
0!
0$
#10
0#
0.
1!
1$
#11
0=
0@
b0000 >
b00 ?
1<
#15
0!
0$
#20
1#
1.
1!
1$
b10110110001110100110010011111011 &
b1111 '
1)
#21
04
b1110 5
#25
0!
0$
#30
0#
0.
1!
1$
b10001011111100111100111100001101 &
#31
1=
#35
0!
0$
#40
1#
1.
1!
1$
b10010101100111011111000000010101 &
#45
0!
0$
#50
0#
0.
1!
1$
b00111001011011110001111000110111 &
#55
0!
0$
#60
1#
1.
1!
1$
b01101001111110011001001001111100 &
#65
0!
0$
#70
0#
0.
1!
1$
b01001110010010001010001000111101 &
#75
0!
0$
#80
1#
1.
1!
1$
b10111110001010010100010001110011 &
#85
0!
0$
#90
0#
0.
1!
1$
b11100110111001000111000011010001 &
#95
0!
0$
#100
1#
1.
1!
1$
b00101010000011010110010100110101 &
#105
0!
0$
#110
0#
0.
1!
1$
b10010001101110110010100110100101 &
#115
0!
0$
#120
1#
1.
1!
1$
b01101001100110000100000101000000 &
#125
0!
0$
#130
0#
0.
1!
1$
b00010000011001001100111010011101 &
#135
0!
0$
#140
1#
1.
1!
1$
b01100000100001011111110011111011 &
#145
0!
0$
#150
0#
0.
1!
1$
b00101111001010111110000111001101 &
#155
0!
0$
#160
1#
1.
1!
1$
b10101001110110010101110100010001 &
#165
0!
0$
#170
0#
0.
1!
1$
b00101100000100110111010110101100 &
1(
#175
0!
0$
#180
1#
1.
1!
1$
0)
0(
#181
b1110 >
1@
b1011 /
b00000000000000000000000010100100 0
b00000100 1
14
#185
0!
0$
#190
0#
0.
1!
1$
b00100011101011001101010111100101 &
1)
#191
0@
04
b1011 5
#195
0!
0$
#200
1#
1.
1!
1$
b11110111110001001111011110101001 &
#205
0!
0$
#210
0#
0.
1!
1$
b11111000011100101011111111111110 &
#215
0!
0$
#220
1#
1.
1!
1$
b11101010010000000110110011100001 &
#225
0!
0$
#230
0#
0.
1!
1$
b11110000001100011110011010000100 &
1(
#235
0!
0$
#240
1#
1.
1!
1$
0)
0(
#241
b1011 >
1@
b1011 7
b00000000000000000000000000011011 8
b00001111 *
b010 9
b01 :
1+
#245
0!
0$
#250
0#
0.
1!
1$
#251
0@
1A
1-
b1011 B
b00 C
0D
b10110110001110100110010011111011 ,
#255
0!
0$
#260
1#
1.
1!
1$
#261
0+
#265
0!
0$
#270
0#
0.
1!
1$
#271
b10001011111100111100111100001101 ,
#275
0!
0$
#280
1#
1.
1!
1$
#281
b10010101100111011111000000010101 ,
#285
0!
0$
#290
0#
0.
1!
1$
#291
b00111001011011110001111000110111 ,
#295
0!
0$
#300
1#
1.
1!
1$
#301
b01101001111110011001001001111100 ,
#305
0!
0$
#310
0#
0.
1!
1$
#311
b01001110010010001010001000111101 ,
#315
0!
0$
#320
1#
1.
1!
1$
#321
b10111110001010010100010001110011 ,
#325
0!
0$
#330
0#
0.
1!
1$
#331
b11100110111001000111000011010001 ,
#335
0!
0$
#340
1#
1.
1!
1$
#341
b00101010000011010110010100110101 ,
#345
0!
0$
#350
0#
0.
1!
1$
#351
b10010001101110110010100110100101 ,
#355
0!
0$
#360
1#
1.
1!
1$
#361
b01101001100110000100000101000000 ,
#365
0!
0$
#370
0#
0.
1!
1$
#371
b00010000011001001100111010011101 ,
#375
0!
0$
#380
1#
1.
1!
1$
#381
b01100000100001011111110011111011 ,
#385
0!
0$
#390
0#
0.
1!
1$
#391
b00101111001010111110000111001101 ,
#395
0!
0$
#400
1#
1.
1!
1$
#401
b10101001110110010101110100010001 ,
#405
0!
0$
#410
0#
0.
1!
1$
#411
1D
b00101100000100110111010110101100 ,
#415
0!
0$
#420
1#
1.
1!
1$
#421
0-
0D
#425
0!
0$
#430
0#
0.
1!
1$
#431
b1110 7
b00000000000000000000000010100100 8
b00000100 *
1+
#435
0!
0$
#440
1#
1.
1!
1$
#441
1-
b1110 B
b00100011101011001101010111100101 ,
0+
#445
0!
0$
#450
0#
0.
1!
1$
#455
0!
0$
#460
1#
1.
1!
1$
#461
b11110111110001001111011110101001 ,
#465
0!
0$
#470
0#
0.
1!
1$
#471
b11111000011100101011111111111110 ,
#475
0!
0$
#480
1#
1.
1!
1$
#481
b11101010010000000110110011100001 ,
#485
0!
0$
#490
0#
0.
1!
1$
#491
1D
b11110000001100011110011010000100 ,
#495
0!
0$
#500
1#
1.
1!
1$
#501
0-
0D
#505
0!
0$
#510
0#
0.
1!
1$
#511
b1100 /
b00000000000000000000000011111011 0
b00001101 1
14
#515
0!
0$
#520
1#
1.
1!
1$
b01100100010011011000001000010000 &
1)
#521
04
b1100 5
#525
0!
0$
#530
0#
0.
1!
1$
b00100100111100100010111100101101 &
#535
0!
0$
#540
1#
1.
1!
1$
b00110011011111000000000010111011 &
#545
0!
0$
#550
0#
0.
1!
1$
b11100010110000011101011111001010 &
#555
0!
0$
#560
1#
1.
1!
1$
b01100110111001111111000011011010 &
#565
0!
0$
#570
0#
0.
1!
1$
b00000001001001010101100011011110 &
#575
0!
0$
#580
1#
1.
1!
1$
b00000010100111010111000101101110 &
#585
0!
0$
#590
0#
0.
1!
1$
b01111010110111000101110111010110 &
#595
0!
0$
#600
1#
1.
1!
1$
b01000000011100011100010110111011 &
#605
0!
0$
#610
0#
0.
1!
1$
b11110000000000110101111111010110 &
#615
0!
0$
#620
1#
1.
1!
1$
b10111111000100111110011101111000 &
#625
0!
0$
#630
0#
0.
1!
1$
b00010000010110010101010011001010 &
#635
0!
0$
#640
1#
1.
1!
1$
b01101111001100010110011100100101 &
#645
0!
0$
#650
0#
0.
1!
1$
b00001101000101010011100010110101 &
1(
#655
0!
0$
#660
1#
1.
1!
1$
0)
0(
#661
b1100 >
1@
b0101 /
b00000000000000000000000000011011 0
b00000000 1
14
#665
0!
0$
#670
0#
0.
1!
1$
b11100100001110010100111100101111 &
1(
1)
#671
0@
04
b0101 5
#675
0!
0$
#680
1#
1.
1!
1$
0)
0(
#681
b0101 >
1@
#685
0!
0$
#690
0#
0.
1!
1$
#691
0@
