I2S_VIP_IN_UVM/dump.vcd
$date
	Sat Jan 28 01:17:30 2023
$end

$version
	Synopsys VCS version S-2021.09
$end

$timescale
	1ps
$end

$comment Csum: 1 85d498023f56576f $end


$scope module $unit $end
$upscope $end


$scope module i2s_pkg $end
$upscope $end


$scope module i2s_tbench_top $end
$var reg 1 ! clock $end

$scope begin unnamed$$_vcs_1 $end
$upscope $end


$scope begin unnamed$$_vcs_0 $end
$upscope $end


$scope begin unnamed$$_vcs_2 $end
$upscope $end


$scope module intf $end
$var reg 1 " reset $end
$var reg 1 # sd_out $end
$var reg 1 $ WS $end
$var reg 1 % SCK $end
$var reg 1 & clk $end
$upscope $end

$upscope $end


$scope module uvm_pkg $end
$var reg 32 ' UVM_UNBOUNDED_CONNECTIONS [31:0] $end
$var reg 1 ( uvm_start_uvm_declarations $end
$var time 64 ) setting_offset $end
$var reg 32 * setting_verbosity [31:0] $end
$var reg 1 + is_verdi_set_verbosity_called $end
$var reg 32 , uvm_global_random_seed [31:0] $end
$upscope $end

$enddefinitions $end

#0
$dumpvars
0+
1(
bxxxxxxxxxxxxxxxxxxxxxxxxxxxxxxxxxxxxxxxxxxxxxxxxxxxxxxxxxxxxxxxx )
b11111111111111111111111111111111 '
b00000000000000000000000000000000 *
b01000010000001111100110001000111 ,
0!
0"
0&
0%
x$
x#
$end
#1000
1%
0$
#2000
0%
#3000
1%
0#
#4000
0%
#5000
1%
#6000
0%
#7000
1%
1#
#8000
0%
#9000
1%
#10000
0%
#10417
1!
1&
#11000
1%
0#
#12000
0%
#13000
1%
#14000
0%
#15000
1%
1#
#16000
0%
#17000
1%
0#
#18000
0%
#19000
1%
#20000
0%
#20834
0!
0&
#21000
1%
1#
#22000
0%
#23000
1%
0#
#24000
0%
#25000
1%
#26000
0%
#27000
1%
#28000
0%
#29000
1%
1#
#30000
0%
#31000
1%
#31251
1!
1&
#32000
0%
#33000
1$
1%
#34000
0%
#35000
1%
#36000
0%
#37000
1%
#38000
0%
#39000
1%
#40000
0%
#41000
1%
0#
#41668
0!
0&
#42000
0%
#43000
1%
1#
#44000
0%
#45000
1%
#46000
0%
#47000
1%
#48000
0%
#49000
1%
0#
#50000
0%
#51000
1%
#52000
0%
#52085
1!
1&
#53000
1%
1#
#54000
0%
#55000
1%
0#
#56000
0%
#57000
1%
#58000
0%
#59000
1%
1#
#60000
0%
#61000
1%
#62000
0%
#62502
0!
0&
#63000
1%
0#
#64000
0%
#65000
0$
1%
0%
#66000
1%
#67000
0%
#68000
1%
1#
#69000
0%
#70000
1%
0#
#71000
0%
#72000
1%
1#
#72919
1!
1&
#73000
0%
#74000
1%
0#
#75000
0%
#76000
1%
#77000
0%
#78000
1%
1#
#79000
0%
#80000
1%
#81000
0%
#82000
1%
#83000
0%
#83336
0!
0&
#84000
1%
0#
#85000
0%
#86000
1%
#87000
0%
#88000
1%
1#
#89000
0%
#90000
1%
0#
#91000
0%
#92000
1%
#93000
0%
#93753
1!
1&
#94000
1%
1#
#95000
0%
#96000
1%
#97000
0%
#98000
1$
1%
#99000
0%
#100000
1%
#101000
0%
#102000
1%
0#
#103000
0%
#104000
1%
#104170
0!
0&
#105000
0%
#106000
1%
#107000
0%
#108000
1%
1#
#109000
0%
#110000
1%
0#
#111000
0%
#112000
1%
#113000
0%
#114000
1%
1#
#114587
1!
1&
#115000
0%
#116000
1%
0#
#117000
0%
#118000
1%
1#
#119000
0%
#120000
1%
#121000
0%
#122000
1%
#123000
0%
#124000
1%
#125000
0%
#125004
0!
0&
#126000
1%
0#
#127000
0%
#128000
1%
#129000
0%
#130000
0$
1%
0%
#131000
1%
#132000
0%
#133000
1%
#134000
0%
#135000
1%
1#
#135421
1!
1&
#136000
0%
#137000
1%
0#
#138000
0%
#139000
1%
1#
#140000
0%
#141000
1%
0#
#142000
0%
#143000
1%
1#
#144000
0%
#145000
1%
0#
#145838
0!
0&
#146000
0%
#147000
1%
1#
#148000
0%
#149000
1%
#150000
0%
#151000
1%
#152000
0%
#153000
1%
0#
#154000
0%
#155000
1%
1#
#156000
0%
#156255
1!
1&
#157000
1%
0#
#158000
0%
#159000
1%
1#
#160000
0%
#161000
1%
0#
#162000
0%
#163000
1$
1%
#164000
0%
#165000
1%
1#
#166000
0%
#166672
0!
0&
#167000
1%
#168000
0%
#169000
1%
0#
#170000
0%
#171000
1%
1#
#172000
0%
#173000
1%
#174000
0%
#175000
1%
#176000
0%
#177000
1%
#177089
1!
1&
#178000
0%
#179000
1%
0#
#180000
0%
#181000
1%
1#
#182000
0%
#183000
1%
#184000
0%
#185000
1%
#186000
0%
#187000
1%
0#
#187506
0!
0&
#188000
0%
#189000
1%
#190000
0%
#191000
1%
1#
#192000
0%
#193000
1%
0#
#194000
0%
#195000
0$
1%
0%
#196000
1%
#197000
0%
#197923
1!
1&
#198000
1%
#199000
0%
#200000
1%
1#
#201000
0%
#202000
1%
#203000
0%
#204000
1%
0#
#205000
0%
#206000
1%
1#
#207000
0%
#208000
1%
0#
#208340
0!
0&
#209000
0%
#210000
1%
#211000
0%
#212000
1%
1#
#213000
0%
#214000
1%
0#
#215000
0%
#216000
1%
1#
#217000
0%
#218000
1%
0#
#218757
1!
1&
#219000
0%
#220000
1%
1#
#221000
0%
#222000
1%
0#
#223000
0%
#224000
1%
#225000
0%
#226000
1%
1#
#227000
0%
#228000
1$
1%
#229000
0%
#229174
0!
0&
#230000
1%
#231000
0%
#232000
1%
#233000
0%
#234000
1%
0#
#235000
0%
#236000
1%
#237000
0%
#238000
1%
#239000
0%
#239591
1!
1&
#240000
1%
#241000
0%
#242000
1%
1#
#243000
0%
#244000
1%
#245000
0%
#246000
1%
0#
#247000
0%
#248000
1%
#249000
0%
#250000
1%
1#
#250008
0!
0&
#251000
0%
#252000
1%
#253000
0%
#254000
1%
#255000
0%
#256000
1%
0#
#257000
0%
#258000
1%
1#
#259000
0%
#260000
0$
1%
0%
0#
#260425
1!
1&
#261000
1%
#262000
0%
#263000
1%
#264000
0%
#265000
1%
1#
#266000
0%
#267000
1%
#268000
0%
#269000
1%
0#
#270000
0%
#270842
0!
0&
#271000
1%
#272000
0%
#273000
1%
#274000
0%
#275000
1%
1#
#276000
0%
#277000
1%
#278000
0%
#279000
1%
#280000
0%
#281000
1%
0#
#281259
1!
1&
#282000
0%
#283000
1%
#284000
0%
#285000
1%
#286000
0%
#287000
1%
#288000
0%
#289000
1%
#290000
0%
#291000
1%
#291676
0!
0&
#292000
0%
#293000
1$
1%
#294000
0%
#295000
1%
#296000
0%
#297000
1%
#298000
0%
#299000
1%
#300000
0%
#301000
1%
1#
#302000
0%
#302093
1!
1&
#303000
1%
#304000
0%
#305000
1%
0#
#306000
0%
#307000
1%
1#
#308000
0%
#309000
1%
0#
#310000
0%
#311000
1%
#312000
0%
#312510
0!
0&
#313000
1%
#314000
0%
#315000
1%
1#
#316000
0%
#317000
1%
#318000
0%
#319000
1%
#320000
0%
#321000
1%
0#
#322000
0%
#322927
1!
1&
#323000
1%
#324000
0%
#325000
0$
1%
0%
#326000
1%
#327000
0%
#328000
1%
#329000
0%
#330000
1%
#331000
0%
#332000
1%
#333000
0%
#333344
0!
0&
#334000
1%
1#
#335000
0%
#336000
1%
#337000
0%
#338000
1%
#339000
0%
#340000
1%
#341000
0%
#342000
1%
#343000
0%
#343761
1!
1&
#344000
1%
0#
#345000
0%
#346000
1%
#347000
0%
#348000
1%
#349000
0%
#350000
1%
#351000
0%
#352000
1%
1#
#353000
0%
#354000
1%
#354178
0!
0&
#355000
0%
#356000
1%
0#
#357000
0%
#358000
1$
1%
#359000
0%
#360000
1%
1#
#361000
0%
#362000
1%
0#
#363000
0%
#364000
1%
#364595
1!
1&
#365000
0%
#366000
1%
#367000
0%
#368000
1%
#369000
0%
#370000
1%
#371000
0%
#372000
1%
1#
#373000
0%
#374000
1%
0#
#375000
0%
#375012
0!
0&
#376000
1%
#377000
0%
#378000
1%
#379000
0%
#380000
1%
#381000
0%
#382000
1%
1#
#383000
0%
#384000
1%
#385000
0%
#385429
1!
1&
#386000
1%
0#
#387000
0%
#388000
1%
1#
#389000
0%
#390000
0$
1%
0%
0#
#391000
1%
1#
#392000
0%
#393000
1%
0#
#394000
0%
#395000
1%
1#
#395846
0!
0&
#396000
0%
#397000
1%
0#
#398000
0%
#399000
1%
1#
#400000
0%
#401000
1%
0#
#402000
0%
#403000
1%
1#
#404000
0%
#405000
1%
0#
#406000
0%
#406263
1!
1&
#407000
1%
#408000
0%
#409000
1%
1#
#410000
0%
#411000
1%
#412000
0%
#413000
1%
#414000
0%
#415000
1%
#416000
0%
#416680
0!
0&
#417000
1%
#418000
0%
#419000
1%
#420000
0%
#421000
1%
#422000
0%
#423000
1$
1%
#424000
0%
#425000
1%
0#
#426000
0%
#427000
1%
1#
#427097
1!
1&
#428000
0%
#429000
1%
#430000
0%
#431000
1%
0#
#432000
0%
#433000
1%
#434000
0%
#435000
1%
#436000
0%
#437000
1%
#437514
0!
0&
#438000
0%
#439000
1%
1#
#440000
0%
#441000
1%
#442000
0%
#443000
1%
#444000
0%
#445000
1%
0#
#446000
0%
#447000
1%
#447931
1!
1&
#448000
0%
#449000
1%
1#
#450000
0%
#451000
1%
#452000
0%
#453000
1%
0#
#454000
0%
#455000
0$
1%
0%
#456000
1%
#457000
0%
#458000
1%
1#
#458348
0!
0&
#459000
0%
#460000
1%
0#
#461000
0%
#462000
1%
1#
#463000
0%
#464000
1%
#465000
0%
#466000
1%
0#
#467000
0%
#468000
1%
1#
#468765
1!
1&
#469000
0%
#470000
1%
0#
#471000
0%
#472000
1%
#473000
0%
#474000
1%
#475000
0%
#476000
1%
1#
#477000
0%
#478000
1%
0#
#479000
0%
#479182
0!
0&
#480000
1%
1#
#481000
0%
#482000
1%
0#
#483000
0%
#484000
1%
#485000
0%
#486000
1%
#487000
0%
#488000
1$
1%
#489000
0%
#489599
1!
1&
#490000
1%
1#
#491000
0%
#492000
1%
#493000
0%
#494000
1%
0#
#495000
0%
#496000
1%
#497000
0%
#498000
1%
1#
#499000
0%
#500000
1%
#500016
0!
0&
#501000
0%
#502000
1%
0#
#503000
0%
#504000
1%
#505000
0%
#506000
1%
1#
#507000
0%
#508000
1%
0#
#509000
0%
#510000
1%
#510433
1!
1&
#511000
0%
#512000
1%
1#
#513000
0%
#514000
1%
#515000
0%
#516000
1%
#517000
0%
#518000
1%
#519000
0%
#520000
0$
1%
0#
